<svg xmlns="http://www.w3.org/2000/svg" width="18" height="20" viewBox="0 0 18 20">
    <g fill="none" fill-rule="nonzero">
        <path fill="#000" fill-opacity=".54" d="M2.001 4.75a.75.75 0 0 1 1.5 0v12.467c-.01.314.053.507.165.624.107.11.275.169.585.16h8.977c.335-.01.526-.076.607-.16.087-.09.155-.304.165-.646V4.75a.75.75 0 1 1 1.5 0v12.465c-.02.705-.2 1.269-.585 1.667-.39.404-.949.597-1.665.618H4.275c-.685.021-1.266-.18-1.689-.618-.417-.432-.605-1.017-.585-1.687V4.75zm7.749 9a.75.75 0 1 1-1.5 0v-6a.75.75 0 1 1 1.5 0v6zM.75 3.5a.75.75 0 0 1 0-1.5h16a.75.75 0 1 1 0 1.5h-16zm6-2a.75.75 0 0 1 0-1.5h4a.75.75 0 1 1 0 1.5h-4z"/>
        <path d="M-3-2h24v24H-3z"/>
    </g>
</svg>
